{
  "annotations": {
    "list": [
      {
        "builtIn": 1,
        "datasource": "-- Grafana --",
        "enable": true,
        "hide": true,
        "iconColor": "rgba(0, 211, 255, 1)",
        "name": "Annotations & Alerts",
        "type": "dashboard"
      }
    ]
  },
  "editable": true,
  "gnetId": null,
  "graphTooltip": 0,
  "id": 9,
  "links": [],
  "panels": [
    {
      "content": "<div class=\"text-center dashboard-header\">\n  <span>Home Dashboard</span>\n</div>",
      "editable": true,
      "gridPos": {
        "h": 2,
        "w": 24,
        "x": 0,
        "y": 0
      },
      "id": 1,
      "links": [],
      "mode": "html",
      "options": {},
      "style": {},
      "title": "",
      "transparent": true,
      "type": "text"
    },
    {
      "content": "## Performance automation\n\n\n## Mongoose\nhttps://github.com/emc-mongoose/mongoose-storage-driver-pravega\n\n",
      "editable": true,
      "gridPos": {
        "h": 7,
        "w": 24,
        "x": 0,
        "y": 2
      },
      "id": 5,
      "links": [],
      "mode": "markdown",
      "options": {},
      "style": {},
      "title": "",
      "transparent": true,
      "type": "text"
    },
    {
      "folderId": 0,
      "gridPos": {
        "h": 17,
        "w": 6,
        "x": 0,
        "y": 9
      },
      "headings": true,
      "id": 3,
      "limit": 30,
      "links": [],
      "options": {},
      "query": "",
      "recent": false,
      "search": false,
      "starred": true,
      "tags": [],
      "title": "",
      "type": "dashlist"
    },
    {
      "folderId": 0,
      "gridPos": {
        "h": 17,
        "w": 6,
        "x": 6,
        "y": 9
      },
      "headings": true,
      "id": 8,
      "limit": 30,
      "links": [],
      "options": {},
      "query": "",
      "recent": true,
      "search": false,
      "starred": false,
      "tags": [],
      "title": "",
      "type": "dashlist"
    },
    {
      "editable": true,
      "error": false,
      "gridPos": {
        "h": 17,
        "w": 12,
        "x": 12,
        "y": 9
      },
      "id": 4,
      "links": [],
      "options": {},
      "title": "",
      "type": "pluginlist"
    }
  ],
  "schemaVersion": 19,
  "style": "dark",
  "tags": [
    "home"
  ],
  "templating": {
    "list": []
  },
  "time": {
    "from": "now-6h",
    "to": "now"
  },
  "timepicker": {
    "hidden": true,
    "refresh_intervals": [
      "5s",
      "10s",
      "30s",
      "1m",
      "5m",
      "15m",
      "30m",
      "1h",
      "2h",
      "1d"
    ],
    "time_options": [
      "5m",
      "15m",
      "1h",
      "6h",
      "12h",
      "24h",
      "2d",
      "7d",
      "30d"
    ],
    "type": "timepicker"
  },
  "timezone": "browser",
  "title": "Pravega Performance Monitoring",
  "uid": "1pqyIH1Wz",
  "version": 12
}
